5H 5C 6S 7S KD 2C 3S 8S 8D TD
5D 8C 9S JS AC 2C 5C 7D 8S QH
2D 9C AS AH AC 3D 6D 7D TD QD
4D 6S 9H QH QC 3D 6D 7H QD QS
2H 2D 4C 4D 4S 3C 3D 3S 9S 9D
JS 8D 8C AS KH 3C 4H 3S 4S 4D
JS JD 8C JC KH 3C 3H 3S 3D 4D
8S 9S TS JS QH 8S 9S TS JS 8H
8S 9S TS JS QS 8S 9S TS JS 8H
8S 9S TS JS QS 9S TS JS QS KS
8H 8D 8C 8S KH JS 8D 8C 8S KH
JS 8D 8C 8S KH 8H 8D 8C 8S KH
8H 8D 8C 8S KH 8H 8D 8C 8S AH 
8H 8D 8C KS KH 8H 8D KC KS KH
8H 7D 8C KS KH 8H 8D JC KS KH
